{
    "paginator": {
        "total": 6010,
        "total_pages": 401,
        "current_page": 1,
        "per_page": 15
    },
    "links": {
        "prev": null,
        "next": "https:\/\/api.escavador.com\/api\/v1\/busca?q=BUSCA%20E%20APREENS%C3%83O%20TJAL&qo=t&limit=15&page=2"
    },
    "items": [{
            "id": 965885,
            "diario_id": 965885,
            "numero_pagina": 607,
            "diario_sigla": "DJAL",
            "diario_nome": "Di\u00e1rio de Justi\u00e7a do Estado de Alagoas",
            "diario_data": "2019-09-20",
            "caderno": "Jurisdicional - Primeiro Grau",
            "caderno_url": "jurisdicional-primeiro-grau",
            "texto": "Centro, S\u00e3o Sebasti\u00e3o\/AL, tel.: (82) 3542-1321, e-mail: saosebastiao@tjal.gov.br Autos n\u00b0 0700318-33.2019.8.02.0037 A\u00e7\u00e3o: Busca e Apreens\u00e3o Em Aliena\u00e7\u00e3o Fiduci\u00e1ria Autor: Banco Bradesco Financiamentos S\/A R\u00e9u: Shirley...\u00faltima hip\u00f3tese, somente se ambas as partes manifestaram desinteresse na composi\u00e7\u00e3o consensual (art. 335 do CPC). Por fi m, vale destacar que as partes e seus procuradores devem promover a atualiza\u00e7\u00e3o do seu endere\u00e7o residencial ou profi ssional sempre que ocorrer qualquer modifi ca\u00e7\u00e3o tempor\u00e1ria ou...",
            "diario_edicao": "2429",
            "link": "https:\/\/www.escavador.com\/diarios\/965885\/DJAL\/jurisdicional-primeiro-grau\/2019-09-20?page=607",
            "link_api": "https:\/\/api.escavador.com\/api\/v1\/diarios\/965885?page=607",
            "tipo_resultado": "Diario"
        }, {
            "id": 5624481,
            "diario_id": 5624481,
            "numero_pagina": 237,
            "diario_sigla": "DJAL",
            "diario_nome": "Di\u00e1rio de Justi\u00e7a do Estado de Alagoas",
            "diario_data": "2023-03-01",
            "caderno": "Jurisdicional - Primeiro Grau",
            "caderno_url": "jurisdicional-primeiro-grau",
            "texto": "da Justi\u00e7a do TJAL. \u00c0 escrivania determino ainda que, comprovada a busca e apreens\u00e3o do bem nestes autos, remova imediatamente qualquer restri\u00e7\u00e3o lan\u00e7ada sobre o mesmo por este ju\u00edzo no RENAJUD. Fica a Secretaria desde j\u00e1 advertida de que \u201cNa a\u00e7\u00e3o...determina\u00e7\u00f5es: a) proceda \u00e0 juntada do contrato que rege o neg\u00f3cio jur\u00eddico de financiamento firmado entre as partes, sob pena de indeferimento da inicial por in\u00e9pcia, uma vez que o instrumento contratual \u00e9 documento fundamental \u00e0 propositura da demanda; b) especifique, com base no contrato, quais s\u00e3o as cl\u00e1usulas contratuais que a parte autora entende corrompida de ilegalidade e\/ou iniquidade e\/ou abusividade, especificando cada cl\u00e1usula...",
            "diario_edicao": "3253",
            "link": "https:\/\/www.escavador.com\/diarios\/5624481\/DJAL\/jurisdicional-primeiro-grau\/2023-03-01?page=237",
            "link_api": "https:\/\/api.escavador.com\/api\/v1\/diarios\/5624481?page=237",
            "tipo_resultado": "Diario"
        }, {
            "id": 5633093,
            "diario_id": 5633093,
            "numero_pagina": 201,
            "diario_sigla": "DJAL",
            "diario_nome": "Di\u00e1rio de Justi\u00e7a do Estado de Alagoas",
            "diario_data": "2023-03-17",
            "caderno": "Jurisdicional - Primeiro Grau",
            "caderno_url": "jurisdicional-primeiro-grau",
            "texto": "da Justi\u00e7a do TJAL. \u00c0 escrivania determino ainda que, comprovada a busca e apreens\u00e3o do bem nestes autos, remova imediatamente qualquer restri\u00e7\u00e3o lan\u00e7ada sobre o mesmo por este ju\u00edzo no RENAJUD. Fica a Secretaria desde j\u00e1 advertida de que \u201cNa...PEREIRA BOTELHO (OAB 64675\/BA), ADV: ROBERTA BEATRIZ DO NASCIMENTO (OAB 14855\/AL) - Processo 0715658-23.2022.8.02.0001 - Busca e Apreens\u00e3o em Aliena\u00e7\u00e3o Fiduci\u00e1ria - Aliena\u00e7\u00e3o Fiduci\u00e1ria - AUTOR: Banco Pan Sa - R\u00c9U: Leonidas Lima Barbosa Neto...",
            "diario_edicao": "3265",
            "link": "https:\/\/www.escavador.com\/diarios\/5633093\/DJAL\/jurisdicional-primeiro-grau\/2023-03-17?page=201",
            "link_api": "https:\/\/api.escavador.com\/api\/v1\/diarios\/5633093?page=201",
            "tipo_resultado": "Diario"
        }, {
            "id": 3241748,
            "diario_id": 3241748,
            "numero_pagina": 557,
            "diario_sigla": "DJAL",
            "diario_nome": "Di\u00e1rio de Justi\u00e7a do Estado de Alagoas",
            "diario_data": "2020-06-04",
            "caderno": "Jurisdicional e Administrativo",
            "caderno_url": "jurisdicional-e-administrativo",
            "texto": "...autos orifin\u00e1rios) Em suas raz\u00f5es recursais (fls. 01\/23), defendeu a parte agravante que o decisum merece ser reformado, vez o mesmo n\u00e3o est\u00e1 em conson\u00e2ncia com o que prescreve a legisla\u00e7\u00e3o pertinente e \u00e0 jurisprud\u00eancia consolidada do c. STJ e deste e. TJAL. Nesse sentido, afirmou que a decis\u00e3o ora gravada n\u00e3o levou em considera\u00e7\u00e3o o disposto na S\u00famula 530 do STJ, a qual estabelece que a a\u00e7\u00e3o que discute contratos banc\u00e1rios pode ser iniciada sem a juntada do respectivo contrato pelo autor e, caso n\u00e3o seja obtida por...",
            "diario_edicao": "2600",
            "link": "https:\/\/www.escavador.com\/diarios\/3241748\/DJAL\/jurisdicional-e-administrativo\/2020-06-04?page=557",
            "link_api": "https:\/\/api.escavador.com\/api\/v1\/diarios\/3241748?page=557",
            "tipo_resultado": "Diario"
        }, {
            "id": 5650252,
            "diario_id": 5650252,
            "numero_pagina": 45,
            "diario_sigla": "DJAL",
            "diario_nome": "Di\u00e1rio de Justi\u00e7a do Estado de Alagoas",
            "diario_data": "2023-05-04",
            "caderno": "Jurisdicional - Primeiro Grau",
            "caderno_url": "jurisdicional-primeiro-grau",
            "texto": "busca e apreens\u00e3o, alertando a parte autora dos meios necess\u00e1rios ao cumprimento do mandado, nos termos do provimento 15\/2019, devendo a institui\u00e7\u00e3o financeira entrar...Oficial de Justi\u00e7a respons\u00e1vel, a qual o mandado foi distribu\u00eddo, por meio da Central de Mandados deste TJAL. Expedientes necess\u00e1rios. Macei\u00f3(AL), 02 de maio de 2023. Maur\u00edcio C\u00e9sar Breda ...assistentes t\u00e9cnicos e formulem quesitos. Com decurso deste prazo \u00faltimo, de- termino que intimem-se a parte autora pessoalmente, via correio, e por meio dos seus advogados constitu\u00eddos nos autos, a fim de que, havendo indica\u00e7\u00e3o de necessidade pelo perito, realize o exame m\u00e9dico...",
            "diario_edicao": "3295",
            "link": "https:\/\/www.escavador.com\/diarios\/5650252\/DJAL\/jurisdicional-primeiro-grau\/2023-05-04?page=45",
            "link_api": "https:\/\/api.escavador.com\/api\/v1\/diarios\/5650252?page=45",
            "tipo_resultado": "Diario"
        }, {
            "id": 5564081,
            "diario_id": 5564081,
            "numero_pagina": 124,
            "diario_sigla": "DJAL",
            "diario_nome": "Di\u00e1rio de Justi\u00e7a do Estado de Alagoas",
            "diario_data": "2022-09-14",
            "caderno": "Jurisdicional - Primeiro Grau",
            "caderno_url": "jurisdicional-primeiro-grau",
            "texto": "... FRASSETTO GOES (OAB 33416\/SC) - Processo 0727241-05.2022.8.02.0001 - Busca e Apreens\u00e3o em Aliena\u00e7\u00e3o Fiduci\u00e1ria - Aliena\u00e7\u00e3o Fiduci\u00e1ria - AUTORA: Aymor\u00e9...indica\u00e7\u00e3o de interposi\u00e7\u00e3o de Agravo de Instrumento, aguarde-se a decis\u00e3o do E.TJAL, acautelando-se os autos em cart\u00f3rio. Expedientes necess\u00e1rios. Macei\u00f3(AL), 12...fls. 21\/24, houve o deferimento da tutela de urg\u00eancia requerida, bem como invers\u00e3o do \u00f4nus da prova e dos benef\u00edcios da justi\u00e7a gratuita. Ap\u00f3s ter sido devidamente citada, a operadora de sa\u00fade r\u00e9...",
            "diario_edicao": "3143",
            "link": "https:\/\/www.escavador.com\/diarios\/5564081\/DJAL\/jurisdicional-primeiro-grau\/2022-09-14?page=124",
            "link_api": "https:\/\/api.escavador.com\/api\/v1\/diarios\/5564081?page=124",
            "tipo_resultado": "Diario"
        }, {
            "id": 5537500,
            "diario_id": 5537500,
            "numero_pagina": 487,
            "diario_sigla": "DJAL",
            "diario_nome": "Di\u00e1rio de Justi\u00e7a do Estado de Alagoas",
            "diario_data": "2022-07-07",
            "caderno": "Jurisdicional - Primeiro Grau",
            "caderno_url": "jurisdicional-primeiro-grau",
            "texto": "hora para as dilig\u00eancias de busca e apreens\u00e3o, tendo em vista que os oficiais de Justi\u00e7a respons\u00e1veis pelo cumprimento do respectivo...ve\u00edculos automotores, conforme os arts. 444 e seguintes do C\u00f3digo de Normas do TJAL. Despicienda, com o novo C\u00f3digo de Ritos, a autoriza\u00e7\u00e3o...ou oficial de justi\u00e7a, em meio reservado, data e hora para as dilig\u00eancias de busca e apreens\u00e3o, tendo em vista que os oficiais de Justi\u00e7a respons\u00e1veis pelo cumprimento do respectivo...ve\u00edculos automotores, conforme os arts. 444 e seguintes do C\u00f3digo de Normas do TJAL. Despicienda, com o novo C\u00f3digo de Ritos, a autoriza\u00e7\u00e3o...",
            "diario_edicao": "3097",
            "link": "https:\/\/www.escavador.com\/diarios\/5537500\/DJAL\/jurisdicional-primeiro-grau\/2022-07-07?page=487",
            "link_api": "https:\/\/api.escavador.com\/api\/v1\/diarios\/5537500?page=487",
            "tipo_resultado": "Diario"
        }, {
            "id": 5642247,
            "diario_id": 5642247,
            "numero_pagina": 431,
            "diario_sigla": "DJAL",
            "diario_nome": "Di\u00e1rio de Justi\u00e7a do Estado de Alagoas",
            "diario_data": "2023-04-12",
            "caderno": "Jurisdicional e Administrativo",
            "caderno_url": "jurisdicional-e-administrativo",
            "texto": "...COMPROVADA. SENTEN\u00c7A MANTIDA. RECURSO CONHECIDO EM PARTE E N\u00c3O PROVIDO. DECIS\u00c3O UN\u00c2NIME. (TJAL - N\u00famero do Processo: 0706426-31.2015.8.02.0001; Relator (a):Des. Orlando Rocha Filho; Comarca:Foro de Macei\u00f3...4\u00aa C\u00e2mara C\u00edvel; Data do julgamento: 15\/03\/2023; Data de registro: 16\/03\/2023) (Grifei) AGRAVODEINSTRUMENTO. A\u00c7\u00c3O DE BUSCA E APREENS\u00c3O. DISCUSS\u00c3O RECURSAL ACERCA DE ABUSIVIDADES CONTRATUAIS. N\u00c3O CONHECIMENTO SOB PENA DE...",
            "diario_edicao": "3281",
            "link": "https:\/\/www.escavador.com\/diarios\/5642247\/DJAL\/jurisdicional-e-administrativo\/2023-04-12?page=431",
            "link_api": "https:\/\/api.escavador.com\/api\/v1\/diarios\/5642247?page=431",
            "tipo_resultado": "Diario"
        }, {
            "id": 5528367,
            "diario_id": 5528367,
            "numero_pagina": 512,
            "diario_sigla": "DJAL",
            "diario_nome": "Di\u00e1rio de Justi\u00e7a do Estado de Alagoas",
            "diario_data": "2022-06-13",
            "caderno": "Jurisdicional - Primeiro Grau",
            "caderno_url": "jurisdicional-primeiro-grau",
            "texto": "43 e 44, do Provimento n. 45\/2016 CGJ\/TJAL, desincumba-se das provid\u00eancias a seu cargo e viabilize o cumprimento da dilig\u00eancia pelo Oficial de Justi\u00e7a a quem o mandado de busca e apreens\u00e3o for distribu\u00eddo. Transcorrido o lapso e n\u00e3o tendo havido contato pessoal do representante da parte autora com o oficial de justi\u00e7a, o mandado dever\u00e1...de comunica\u00e7\u00e3o com anteced\u00eancia m\u00ednima de 10 (dez) dias (art. 4\u00ba, \u00a75\u00ba e \u00a76\u00ba, da Resolu\u00e7\u00e3o n\u00ba 19\/2020\/TJAL, e art. 11 da Resolu\u00e7\u00e3o n. 354\/2020 do CNJ). Certifique-se nos autos todos os atos praticados, nos moldes do art. 4\u00ba, \u00a71\u00ba e \u00a73\u00ba, da...",
            "diario_edicao": "3081",
            "link": "https:\/\/www.escavador.com\/diarios\/5528367\/DJAL\/jurisdicional-primeiro-grau\/2022-06-13?page=512",
            "link_api": "https:\/\/api.escavador.com\/api\/v1\/diarios\/5528367?page=512",
            "tipo_resultado": "Diario"
        }, {
            "id": 5540814,
            "diario_id": 5540814,
            "numero_pagina": 280,
            "diario_sigla": "DJAL",
            "diario_nome": "Di\u00e1rio de Justi\u00e7a do Estado de Alagoas",
            "diario_data": "2022-07-15",
            "caderno": "Jurisdicional - Primeiro Grau",
            "caderno_url": "jurisdicional-primeiro-grau",
            "texto": "2\u00aa C\u00e2mara C\u00edvel do TJAL, tendo como relatora a eminente Des. Elisabeth Carvalho Nascimento). AGRAVO DE INSTRUMENTO. A\u00c7\u00c3O DE BUSCA E APREENS\u00c3O. CONTRATO DE FINANCIAMENTO COM ALIENA\u00c7\u00c3O FIDUCI\u00c1RIA.CABIMENTO DO...pois, os requisitos necess\u00e1rios, DEFIRO a medida cautelar requerida, ao tempo que determino: Expe\u00e7a-se mandado de busca e apreens\u00e3o de 01 (um) ve\u00edculo marca Honda, modelo Civic, ano\/modelo 2016\/2016, cor CINZA, C\u00f3digo de RENAVAM...",
            "diario_edicao": "3103",
            "link": "https:\/\/www.escavador.com\/diarios\/5540814\/DJAL\/jurisdicional-primeiro-grau\/2022-07-15?page=280",
            "link_api": "https:\/\/api.escavador.com\/api\/v1\/diarios\/5540814?page=280",
            "tipo_resultado": "Diario"
        }, {
            "id": 5589176,
            "diario_id": 5589176,
            "numero_pagina": 265,
            "diario_sigla": "DJAL",
            "diario_nome": "Di\u00e1rio de Justi\u00e7a do Estado de Alagoas",
            "diario_data": "2022-11-22",
            "caderno": "Jurisdicional - Primeiro Grau",
            "caderno_url": "jurisdicional-primeiro-grau",
            "texto": "a imediata BUSCA E APREENS\u00c3O DO BEM DESCRITO NA EXORDIAL e demais dilig\u00eancias necess\u00e1rias. Determino...NCPC e art. 38 do provimento N\u00ba 45, de 10 de novembro de 2016, da Corregedoria-Geral da Justi\u00e7a do TJAL. Autorizo a nomea\u00e7\u00e3o para o encargo de fiel deposit\u00e1rio o representante legal da parte autora, por ela nomeado, conforme...liminar. Fica a parte autora INTIMADA de que compete a ela fornecer os meios necess\u00e1rios para cumprimento do mandado de busca e apreens\u00e3o, e que fica proibida em qualquer hip\u00f3tese, aos oficiais de justi\u00e7a respons\u00e1veis pelo cumprimento de mandados, a realiza\u00e7\u00e3o...",
            "diario_edicao": "3187",
            "link": "https:\/\/www.escavador.com\/diarios\/5589176\/DJAL\/jurisdicional-primeiro-grau\/2022-11-22?page=265",
            "link_api": "https:\/\/api.escavador.com\/api\/v1\/diarios\/5589176?page=265",
            "tipo_resultado": "Diario"
        }, {
            "id": 5282235,
            "diario_id": 5282235,
            "numero_pagina": 332,
            "diario_sigla": "DJAL",
            "diario_nome": "Di\u00e1rio de Justi\u00e7a do Estado de Alagoas",
            "diario_data": "2021-11-25",
            "caderno": "Jurisdicional - Primeiro Grau",
            "caderno_url": "jurisdicional-primeiro-grau",
            "texto": "...AUTORA intimada para se manifestar em 05 dias a respeito deles. ADV: FL\u00c1VIO NEVES COSTA (OAB 153447\/SP) - Processo 0706135-44.2021.8.02.0058 - Busca e Apreens\u00e3o em Aliena\u00e7\u00e3o Fiduci\u00e1ria - Aliena\u00e7\u00e3o Fiduci\u00e1ria - AUTOR: Banco Volkswagen S\/A - Em cumprimento ao Provimento...ser\u00e1 disponibilizado a guia para o recolhimento das custas complementares. Em caso de d\u00favidas, a CJU prestar\u00e1 aux\u00edlio atrav\u00e9s do e-mail: contadoria@tjal.jus.br . ou pelo telefone: 4009 3541. ADV: PEDRO ROBERTO ROM\u00c3O (OAB 209551\/SP) - Processo 0706201-58.2020.8.02.0058 - Execu\u00e7\u00e3o...",
            "diario_edicao": "2949",
            "link": "https:\/\/www.escavador.com\/diarios\/5282235\/DJAL\/jurisdicional-primeiro-grau\/2021-11-25?page=332",
            "link_api": "https:\/\/api.escavador.com\/api\/v1\/diarios\/5282235?page=332",
            "tipo_resultado": "Diario"
        }, {
            "id": 5611153,
            "diario_id": 5611153,
            "numero_pagina": 455,
            "diario_sigla": "DJAL",
            "diario_nome": "Di\u00e1rio de Justi\u00e7a do Estado de Alagoas",
            "diario_data": "2023-01-30",
            "caderno": "Jurisdicional - Primeiro Grau",
            "caderno_url": "jurisdicional-primeiro-grau",
            "texto": "45\/2016 CGJ\/TJAL, desincumba-se das provid\u00eancias a seu cargo e viabilize o cumprimento da dilig\u00eancia pelo Oficial de Justi\u00e7a a quem o mandado de busca e apreens\u00e3o for distribu\u00eddo.\u201d ADV: KARLLY ANNE ..., \u00a73\u00ba, III do Ato Normativo 11\/2020 TJAL, encerrou-se o presente termo, o qual ser\u00e1 assinado eletronicamente e juntado no SAJ, nos termos do art. 8\u00ba do Ato ... 8736A\/AL) - Processo 0700821-86.2022.8.02.0057 - Busca e Apreens\u00e3o em Aliena\u00e7\u00e3o Fiduci\u00e1ria - Aliena\u00e7\u00e3o Fiduci\u00e1ria...",
            "diario_edicao": "3234",
            "link": "https:\/\/www.escavador.com\/diarios\/5611153\/DJAL\/jurisdicional-primeiro-grau\/2023-01-30?page=455",
            "link_api": "https:\/\/api.escavador.com\/api\/v1\/diarios\/5611153?page=455",
            "tipo_resultado": "Diario"
        }, {
            "id": 5565816,
            "diario_id": 5565816,
            "numero_pagina": 412,
            "diario_sigla": "DJAL",
            "diario_nome": "Di\u00e1rio de Justi\u00e7a do Estado de Alagoas",
            "diario_data": "2022-09-19",
            "caderno": "Jurisdicional - Primeiro Grau",
            "caderno_url": "jurisdicional-primeiro-grau",
            "texto": "...aceita\u00e7\u00e3o e para que indique data para a realiza\u00e7\u00e3o da per\u00edcia, no prazo de 5 (cinco) dias. 5. Arbitro, desde logo, os honor\u00e1rios periciais no valor de R$ 250,00 (duzentos e cinquenta reais), nos termos da cl\u00e1usula segunda do Conv\u00eanio n.\u00ba 048\/2018, firmado entre o E. TJAL e a Seguradora L\u00edder dos Cons\u00f3rcios do Seguro DPVAT. 6. Ap\u00f3s a realiza\u00e7\u00e3o da per\u00edcia, intime-se a requerida para efetuar o pagamento em at\u00e9 15 (quinze) dias \u00fateis a contar do recebimento da intima\u00e7\u00e3o, para as per\u00edcias m\u00e9dicas...",
            "diario_edicao": "3145",
            "link": "https:\/\/www.escavador.com\/diarios\/5565816\/DJAL\/jurisdicional-primeiro-grau\/2022-09-19?page=412",
            "link_api": "https:\/\/api.escavador.com\/api\/v1\/diarios\/5565816?page=412",
            "tipo_resultado": "Diario"
        }, {
            "id": 5567975,
            "diario_id": 5567975,
            "numero_pagina": 270,
            "diario_sigla": "DJAL",
            "diario_nome": "Di\u00e1rio de Justi\u00e7a do Estado de Alagoas",
            "diario_data": "2022-09-23",
            "caderno": "Jurisdicional - Primeiro Grau",
            "caderno_url": "jurisdicional-primeiro-grau",
            "texto": "a imediata BUSCA E APREENS\u00c3O DO BEM DESCRITO NA EXORDIAL e demais dilig\u00eancias necess\u00e1rias. ... e art. 38 do provimento N\u00ba 45, de 10 de novembro de 2016, da Corregedoria-Geral da Justi\u00e7a do TJAL. Autorizo a nomea\u00e7\u00e3o para o encargo de fiel deposit\u00e1rio o representante legal da parte autora, por ela nomeado...ROBERTA BEATRIZ DO NASCIMENTO (OAB 192649\/SP) - Processo 0732066-89.2022.8.02.0001 - Busca e Apreens\u00e3o em Aliena\u00e7\u00e3o Fiduci\u00e1ria - Aliena\u00e7\u00e3o Fiduci\u00e1ria - AUTOR: Banco Volkswagen...",
            "diario_edicao": "3149",
            "link": "https:\/\/www.escavador.com\/diarios\/5567975\/DJAL\/jurisdicional-primeiro-grau\/2022-09-23?page=270",
            "link_api": "https:\/\/api.escavador.com\/api\/v1\/diarios\/5567975?page=270",
            "tipo_resultado": "Diario"
        }]
}